Identifier,"Full name","Registration number",Status,Grade,"Grade can be changed","Last modified (grade)","Feedback comments"
"Participant 1519332","d'Lastname, FirstnameL",123012,,,Yes,"Monday, 15 March 2021, 5:42 PM",
"Participant 1519331","LastnameK, FirstnameK",123011,,,Yes,"Monday, 15 March 2021, 5:42 PM",
"Participant 1519330","LastnameJ, FirstnameJ",123010,,,Yes,"Monday, 15 March 2021, 5:42 PM",
"Participant 1519322","LastnameB, FirstnameB",123002,,,Yes,"Monday, 15 March 2021, 5:42 PM",
"Participant 1519321","LastnameA, FirstnameA",123001,,,Yes,"Monday, 15 March 2021, 5:42 PM",
